<header className="w-full bg-white flex">
        <nav className="max-w-[1366px] mx-auto lg:px-10 px-5 flex gap-10 justify-between items-center py-2">
          <div className="lg:w-4/12 w-10/12">
            <Image className="w-full" src={headLogo} alt="Logo Promotor" />
          </div>
          <div className="w-2/12 lg:w-4/12">
            {/* Hamburger menu icon */}
            <div className="block lg:hidden" onClick={toggleMenu}>
              <svg
                xmlns="http://www.w3.org/2000/svg"
                className="h-6 w-6 cursor-pointer"
                fill="none"
                viewBox="0 0 24 24"
                stroke="currentColor"
              >
                <path
                  strokeLinecap="round"
                  strokeLinejoin="round"
                  strokeWidth={2}
                  d="M4 6h16M4 12h16m-7 6h7"
                />
              </svg>
            </div>
          </div>

          {isMenuOpen && (
            <div className="absolute right-0 top-10 mt-2 bg-white shadow-lg rounded-lg py-2 px-2 w-48">
              <div className="mb-2">
                <Link href="#about">
                  <div className="hover:text-red-500 cursor-pointer">NEWS</div>
                </Link>
              </div>
              <div className="mb-2">
                <Link href="#layout">
                  <div className="hover:text-red-500 cursor-pointer">
                    TICKETS
                  </div>
                </Link>
              </div>
              <div className="mb-2">
                <Link href="#promoters">
                  <div className="hover:text-red-500 cursor-pointer">
                    PROMOTERS
                  </div>
                </Link>
              </div>
              <div>
                <Link href="#contact">
                  <div className="hover:text-red-500 cursor-pointer">
                    CONTACT US
                  </div>
                </Link>
              </div>
            </div>
          )}

          <div
            className={`w-full lg:w-4/12 font-bold lg:flex justify-between items-center hidden`}
          >
            <Link href="#about">
              <div className="hover:text-red-500 cursor-pointer transition-all duration-200 ease-out">
                NEWS
              </div>
            </Link>
            <Link href="#layout">
              <div className="hover:text-red-500 cursor-pointer transition-all duration-200 ease-out">
                TICKETS
              </div>
            </Link>
            <Link href="#promoters">
              <div className="hover:text-red-500 cursor-pointer transition-all duration-200 ease-out">
                PROMOTERS
              </div>
            </Link>
            <Link href="#contact">
              <div className="hover:text-red-500 cursor-pointer transition-all duration-200 ease-out">
                CONTACT US
              </div>
            </Link>
          </div>
        </nav>
      </header>

      <main className="w-full">
        <Image src={hero} alt="Poster" />
      </main>

      <div className="max-w-[1366px] mx-auto lg:px-10 px-7 py-10">
        <div
          id="about"
          className="flex flex-col gap-5 items-center border-b-2 pb-10 border-gray-300"
        >
          <div className="text-[30px] font-bold font-Montserrat">News</div>
          <div className="flex flex-col items-center gap-3">
            <p>
              TEM Presents and PK Entertainment proudly present the newest K-Pop
              girl group from YG Entertainment, BABYMONSTER, who will be holding
              their First Fanmeet 2024 ‘See You There’ in Jakarta on June 8,
              2024 at Tennis Indoor Senayan in Jakarta. This will be
              BABYMONSTER’s first appearance in Indonesia since their debut on
              November 26, 2023.
            </p>
            <p>
              The group, with multinational members from Korea, Thailand, and
              Japan, imprinted the presence in the global music market as the
              "monster rookie" with overwhelming capabilities covering all
              aspects from vocal, rap, performance to visuals.
            </p>
            <p>
              Following two pre debut singles: "BATTER UP" and "Stuck In The
              Middle," BABYMONSTER made its official debut with the first EP,
              {" [BABYMONS7ER]"}, on April 1st, 2024. Title track "SHEESH"
              ranked 69th on Spotify's daily top song global chart on the first
              day of its release.
            </p>
            <p>
              <strong>BABYMONSTER: SEE YOU THERE </strong>
              will kick off in
              <strong> Jakarta, Indonesia </strong>
              on
              <strong> June 8, 2024 at Tennis Indoor Senayan</strong>, marking
              the beginning of a series of electrifying performances and
              exclusive fan interactions.
            </p>
          </div>
        </div>

        <div
          id="videos"
          className="flex flex-col gap-5 items-center justify-center border-b-2 py-10 border-gray-300"
        >
          <div className="text-[30px] font-bold font-Montserrat">Videos</div>
          <div className="flex gap-2">
            <div className="rounded-xl overflow-hidden w-full">
              <Link
                target="_blank"
                href={"https://www.youtube.com/watch?v=olDWm2veCrM"}
              >
                <Image
                  className="hover:scale-110 transition-all duration-200 ease-out"
                  src={vid1}
                  alt="vid1"
                />
              </Link>
            </div>
            <div className="rounded-xl overflow-hidden w-full">
              <Link
                target="_blank"
                href={"https://www.youtube.com/watch?v=GsV1i0QHi-o"}
              >
                <Image
                  className="hover:scale-110 transition-all duration-200 ease-out"
                  src={vid2}
                  alt="vid2"
                />
              </Link>
            </div>
          </div>
        </div>

        {/* Layout */}
        <div
          id="layout"
          className="flex flex-col gap-5 items-center justify-center border-b-2 py-10 border-gray-300"
        >
          <div className="text-[30px] font-bold font-Montserrat">Layout</div>
          <div className="w-full">
            <Image src={layout} alt="layout" />
          </div>
          <div className="flex flex-col items-center gap-3">
            <Link href={"#"}>
              <button className="px-12 bg-slate-700 py-4 rounded-md text-white font-bold font-Montserrat hover:bg-slate-500 transition-all duration-200 ease-out hover:scale-105">
                General On-Sale
              </button>
            </Link>

            <div className="text-[12px] text-center">
              <p>
                Starts on Wednesday, 24 April 2024 at 10AM<br></br> (Jakarta
                Local Time)
              </p>
            </div>
          </div>
        </div>

        {/* Terms & Condition */}
        <div
          id="term"
          className="flex flex-col gap-5  border-b-2 py-10 border-gray-300"
        >
          <div className="text-[30px] font-bold text-center font-Montserrat">
            Terms & Conditions
          </div>
          <div className="pb-3">
            <h3 className="font-bold text-[19px]">
              General Terms & Conditions
            </h3>
            <h3 className="font-medium text-[17px]">Syarat & Ketentuan Umum</h3>
          </div>
          <ol
            className={`list-decimal text-[16px] lg:px-10 px-5 flex flex-col gap-1 ${
              showAll ? "show" : "hide"
            }`}
          >
            <li>
              <p>
                Tickets can only be purchased through babymonsterinjakarta.com.
                Tickets are only for admission to the BABYMONSTER First Fanmeet
                “See You There” 2024 IN JAKARTA.
              </p>
              <p className="text-red-500 italic">
                Tiket hanya dapat dibeli melalui babymonsterinjakarta.com. Tiket
                dapat digunakan untuk masuk ke acara fanmeet BABYMONSTER First
                Fanmeet “See You There” 2024 IN JAKARTA.{" "}
              </p>
            </li>
            <li>
              <p>
                Ticket sales are limited to a maximum of{" "}
                <strong> 6 (six) </strong> per transaction within the{" "}
                <strong> same category. 1 (one) email address </strong>
                <strong> and 1 (one) phone number </strong> is limited to{" "}
                <strong> 1 (one) transaction</strong>.
              </p>
              <p className="text-red-500 italic">
                Penjualan Tiket dibatasi maksimal <strong> 6 (enam) </strong>{" "}
                per transaksi dalam
                <strong> kategori yang sama. 1 (satu) alamat email </strong> dan
                <strong> 1 (satu) nomor telepon </strong> dibatasi{" "}
                <strong> 1 (satu) transaksi</strong>.
              </p>
            </li>
            <li>
              <p>
                Name in accordance with a valid ID Card is required to purchase
                tickets to the BABYMONSTER First Fanmeet “See You There” 2024 IN
                JAKARTA. Make sure to buy tickets using your valid and correct
                matching data (ID Card/KK/KTP/SIM/Passport). Your ticket(s)
                cannot be changed and/or modified once the purchase has been
                made.
              </p>
              <p className="text-red-500 italic">
                Nama sesuai dengan kartu identitas yang sah bersifat wajib untuk
                membeli Tiket ke acara fanmeet BABYMONSTER First Fanmeet “See
                You There” 2024 IN JAKARTA. Pastikan Anda melakukan pembelian
                Tiket dengan menggunakan data Anda yang sah dan benar (Kartu
                Identitas/KK/KTP/SIM/Paspor). Tiket Anda tidak dapat diubah
                dan/atau dimodifikasi setelah pembelian sudah dilakukan.
              </p>
            </li>
            <li>
              <p>
                In order for Tickets to be valid, on the show day, the Ticket
                Buyer (Lead Booker) will be asked to provide all of the
                following items alongside their ticket(s):
                <br />
                a. Photo ID (ID Card/KK/KTP/SIM/Passport)
                <br /> b. Booking confirmation email
              </p>

              <p className="text-red-500 italic">
                Agar Tiket Anda valid, di hari acara, Pembeli Tiket (Pemesan
                Utama) akan diminta untuk menyediakan barang dibawah ini bersama
                tiket Anda:
                <br />
                a. Kartu identitas dengan foto (ID Card/KK/KTP/SIM/Paspor)
                <br />
                b. Email konfirmasi pesanan
              </p>
            </li>
            <li>
              <p>
                Ticket Buyer (Lead Booker) is any person who makes a ticket
                purchase in accordance with these Terms & Conditions. Ticket
                Holder is every person who owns/controls a ticket to enter the
                event location on the date of the event.{" "}
                <strong> 1 (one) ticket </strong> is valid for{" "}
                <strong> 1 (one) Ticket Holder </strong> for{" "}
                <strong> 1 (one) entry </strong> to the event location.
              </p>
              <p className="text-red-500 italic">
                Pembeli Tiket (Pemesan Utama) adalah setiap orang yang melakukan
                pembelian Tiket sesuai dengan Syarat & Ketentuan ini. Pemegang
                Tiket adalah setiap orang yang memiliki/menguasai Tiket untuk
                memasuki area acara pada tanggal pelaksanaan acara.{" "}
                <strong> 1 (satu) Tiket berlaku </strong> untuk{" "}
                <strong> 1 (satu) orang Pemegang Tiket </strong>, untuk{" "}
                <strong> 1 (satu) kali masuk </strong> ke area acara.
              </p>
            </li>
            {showAll && (
              <>
                <li>
                  <p>
                    When arriving in groups, the Ticket Buyer (Lead Booker)
                    needs to be present in order for the whole party to enter
                    the venue. All members of the party should enter the venue
                    at the same time.
                  </p>
                  <p className="text-red-500 italic">
                    Jika Anda hadir dalam grup, Pembeli Tiket (Pemesan Utama)
                    wajib hadir agar semua rombongan dapat memasuki area
                    fanmeet. Semua anggota di dalam satu pesanan wajib memasuki
                    area acara pada waktu yang sama
                  </p>
                </li>
                <li>
                  <p>
                    By purchasing the tickets to the BABYMONSTER First Fanmeet
                    “See You There” 2024 IN JAKARTA. you agree to the
                    collection, storage and limited use of your personal data
                    for the purposes of the BABYMONSTER First Fanmeet “See You
                    There” 2024 IN JAKARTA.
                  </p>
                  <p className="text-red-500 italic">
                    Dengan membeli Tiket acara BABYMONSTER First Fanmeet “See
                    You There” 2024 IN JAKARTA, Anda telah menyetujui
                    pengumpulan, penyimpanan dan penggunaan data pribadi Anda
                    secara terbatas untuk keperluan acara BABYMONSTER First
                    Fanmeet “See You There” 2024 IN JAKARTA.
                  </p>
                </li>
                <li>
                  <p>
                    This fanmeet consists of 3 (three) main categories. Pink and
                    Yellow are numbered tribung seating categories, while Blue
                    is a standing category. Seat number(s) will be provided in
                    the e-ticket closer to the event date
                  </p>
                  <p className="text-red-500 italic">
                    Fanmeet ini memiliki 3 (tiga) kategori utama. Pink dan
                    Kuning adalah area duduk bernomor dan bertingkat, dan
                    kategori Biru adalah kategori berdiri. Nomor kursi akan
                    tersedia pada e-tiket yang akan didapatkan menjelang hari
                    acara.
                  </p>
                </li>
                <li>
                  <p>
                    There is a limited quota for wheelchair accessible seating.
                    For more information regarding wheelchair accessible seating
                    and booking, please contact our customer service to process
                    your booking. To get your booking authorised, you must
                    present your medical certificate as the proof of disability.
                    The Organizer only accepts a legitimate medical certificate
                    from a legitimate institution and physician.
                  </p>
                  <p className="text-red-500 italic">
                    Terdapat kuota dalam jumlah terbatas untuk tempat duduk yang
                    dapat diakses dengan kursi roda. Untuk informasi lebih
                    lanjut dan pemesanan, silakan hubungi layanan pelanggan kami
                    untuk memproses pemesanan Anda. Untuk mendapatkan otorisasi
                    pemesanan tempat duduk ini, Anda diwajibkan untuk
                    melampirkan Surat Keterangan Dokter yang sah. Penyelenggara
                    Acara hanya menerima Surat Keterangan Dokter yang berasal
                    dari institusi yang sah, baik klinik maupun rumah sakit.
                  </p>
                </li>
                <li>
                  <p>
                    Ticket price excludes Government Tax 10%, Platform Fee 5%
                    and Convenience Fee.
                  </p>
                  <p className="text-red-500 italic">
                    Harga Tiket tidak termasuk Pajak 10%, Biaya Platform 5% dan
                    biaya lainnya.
                  </p>
                </li>
                <li>
                  <p>
                    The Ticket Holder must occupy the seat or position that has
                    been assigned by the Organizer according to the category of
                    the ticket purchased.
                  </p>
                  <p className="text-red-500 italic">
                    Pemegang Tiket wajib menempati tempat duduk atau posisi yang
                    telah ditentukan oleh pihak Penyelenggara sesuai dengan
                    kategori Tiket yang dibeli.
                  </p>
                </li>
                <li>
                  <p>
                    Your Ticket/s are sold by the Promoters directly to the
                    consumer. Any tickets purchased by businesses or traders in
                    breach of the Terms & Conditions of ticket sale will be
                    cancelled. By accepting these terms and conditions you
                    confirm that you are a consumer.
                  </p>
                  <p className="text-red-500 italic">
                    Tiket dijual secara langsung oleh Promotor ke konsumen.
                    Tiket apa pun yang dibeli oleh pelaku usaha atau pedagang
                    yang melanggar Syarat & Ketentuan penjualan tiket akan
                    dibatalkan. Dengan menerima syarat dan ketentuan ini, Anda
                    mengkonfirmasi bahwa Anda adalah konsumen.
                  </p>
                </li>
                <li>
                  <p>
                    Tickets cannot be used for commercial purposes, including
                    but not limited to prizes, competition, contests or
                    sweepstakes. Tickets sold or used in breach of this
                    condition may be nullified without a refund, where the
                    Ticket Holder will be refused admission into the fanmeet
                    area with no exception. The Organiser is not responsible for
                    the negligence of the Ticket Buyer which results in the
                    ticket falling into the hands of other parties which can be
                    used as an entry requirement, thereby eliminating the Ticket
                    Buyer’s rights to enter the venue area.
                  </p>
                  <p className="text-red-500 italic">
                    Tiket tidak dapat digunakan untuk keperluan komersial,
                    termasuk namun tidak terbatas kepada hadiah, kompetisi,
                    kontes, atau undian. Tiket yang dijual atau digunakan dengan
                    melanggar persyaratan ini dapat dibatalkan tanpa
                    pengembalian dana, dan Pemegang Tiket akan ditolak masuk ke
                    dalam area acara tanpa terkecuali. Penyelenggara tidak
                    bertanggung jawab atas kelalaian Pembeli Tiket yang
                    mengakibatkan Tiket jatuh ke tangan orang lain dan
                    dipergunakan sebagai tanda masuk, sehingga menghilangkan hak
                    Pembeli Tiket untuk masuk ke area acara.
                  </p>
                </li>
                <li>
                  <p>
                    Your Ticket/s will IMMEDIATELY BECOME INVALID if resold OR
                    OFFERED FOR SALE. Tickets sold via third parties and other
                    unauthorised outlets, including online auction sites (such
                    as Viagogo, StubHub, tiketX, thekaryll, etc.), are not valid
                    for admission. The resale of a Ticket renders it invalid and
                    may lead to refusal of entry.
                  </p>
                  <p className="text-red-500 italic">
                    Tiket Anda LANGSUNG MENJADI TIDAK VALID jika dijual kembali
                    ATAU DITAWARKAN UNTUK DIJUAL. Tiket yang dijual melalui
                    pihak ketiga dan outlet tidak resmi lainnya, termasuk situs
                    lelang online (seperti Viagogo, Stubhub, tiketX, thekaryll,
                    dll), tidak berlaku untuk tiket masuk. Penjualan kembali
                    Tiket menjadikannya tidak sah dan dapat menyebabkan
                    penolakan masuk.
                  </p>
                </li>
                <li>
                  <p>
                    All ticket sales are final. Tickets that have been sold
                    cannot be exchanged and unable to be cashed out.
                  </p>
                  <p className="text-red-500 italic">
                    Semua penjualan Tiket adalah final. Tiket yang telah terjual
                    tidak dapat ditukar dan tidak dapat diuangkan kembali.
                  </p>
                </li>
                <li>
                  <p>
                    Your ticket(s) are digital tickets that will be delivered 7
                    (seven) days before the show day to the ticket vendor’s
                    app/wallet which you will be instructed to download to your
                    smart device.
                  </p>
                  <p className="text-red-500 italic">
                    Tiket Anda adalah tiket digital yang akan dikirimkan 7
                    (tujuh) hari sebelum hari acara ke aplikasi vendor Tiket
                    yang Anda harus unduh di telepon genggam Anda.
                  </p>
                </li>
                <li>
                  <p>
                    In the event of a cancelled fanmeet, tickets will be
                    refunded in accordance with the provisions of the Organizer.
                    Refunds do not include Platform Fee, Convenience Fee, and
                    any other personal costs of the Ticket Buyer (e.g. travel
                    expenses, accommodation expenses, etc).
                  </p>
                  <p className="text-red-500 italic">
                    Jika terjadi pembatalan fanmeet, maka Tiket akan
                    dikembalikan sesuai dengan ketentuan Penyelenggara.
                    Pengembalian harga Tiket tidak termasuk Biaya Platform,
                    Biaya Lainnya dan biaya pribadi Pembeli Tiket (contoh biaya
                    perjalanan, biaya akomodasi, dll).
                  </p>
                </li>
                <li>
                  <p>
                    The Ticket Holder grants the Organizer and Sponsors the
                    right to use, in perpetuity, all or any part of the
                    recording of any video and still footage made of the Ticket
                    holder’s appearance on any channels, including but not
                    limited to magazine, social media, and TV for broadcast in
                    any and all media globally used for advertising, publicity
                    and promotions relating thereto without any further approval
                    of yours.
                  </p>
                  <p className="text-red-500 italic">
                    Pemegang Tiket memberikan hak kepada Penyelenggara acara dan
                    para Sponsor untuk melakukan rekaman video dan gambar baik
                    sebagian atau semua, pada kanal/platform apapun, termasuk
                    namun tidak terbatas pada majalah, media sosial, dan saluran
                    TV untuk disiarkan di media apapun di seluruh dunia, untuk
                    iklan, publisitas dan promosi yang berkaitan dengan konser
                    tanpa persetujuan lebih lanjut dari Pemegang Tiket.
                  </p>
                </li>
                <li>
                  <p>
                    The following items are not permitted in the event and may
                    be ejected with or without the owner from the venue area:
                  </p>
                  <p className="text-red-500 italic">
                    Barang-barang berikut tidak diizinkan dalam acara dan akan
                    dikeluarkan dengan atau tanpa pemilik dari area acara
                    tersebut:
                  </p>
                  <ul className="pl-5 list-disc">
                    <li>
                      <p>
                        Non-authorized professional recording equipment
                        (professional cameras, video recording devices, and
                        audio recording devices, including ‘GoPro’ style devices
                        and tablets), for unauthorized people/journalist without
                        accredited badge;
                      </p>
                      <p className="text-red-500 italic">
                        Alat perekam profesional yang tidak memiliki izin
                        (kamera profesional, alat perekam video dan alat perekam
                        suara, termasuk perangkat sejenis GoPro dan tablet)
                        untuk pihak yang tidak resmi / wartawan yang tidak sah
                        tanpa ID khusus dari Penyelenggara;
                      </p>
                    </li>
                    <li>
                      <p>
                        Liquids, alcohol, cigarettes and banned substances
                        including outside food and drink;
                      </p>
                      <p className="text-red-500 italic">
                        Cairan, alkohol, segala jenis rokok, dan barang-barang
                        terlarang lainnya termasuk makanan dan minuman;
                      </p>
                    </li>
                    <li>
                      <p>
                        Pyrotechnic items or explosives including fireworks,
                        candles, lighters;
                      </p>
                      <p className="text-red-500 italic">
                        Benda piroteknik atau benda yang bersifat meledak
                        termasuk kembang api, lilin atau korek api;
                      </p>
                    </li>
                    <li>
                      <p>
                        Flammable material including alcohol, gasoline,
                        kerosene, pressurized cologne;
                      </p>
                      <p className="text-red-500 italic">
                        Bahan mudah terbakar termasuk alkohol, bensin, minyak
                        tanah, cologne;
                      </p>
                    </li>
                    <li>
                      <p>
                        Dangerous or potentially hazardous objects, including
                        but not limited to sports items, weapons, knives, guns,
                        laser devices, iron bar, wooden bar, sharp object or
                        material, helmets, metal/plastic knuckles, self-defense
                        spray (tear, pepper-spray), stun guns (taser) or any
                        electric shock devices;
                      </p>
                      <p className="text-red-500 italic">
                        Benda berbahaya atau berpotensi berbahaya termasuk namun
                        tidak terbatas pada alat olahraga, senjata, pisau,
                        senjata api, perangkat laser, bar besi, bilah kayu,
                        benda atau bahan tajam, helm, keling besi/plastic,
                        semprotan pertahan diri (gas air mata, semprotan
                        merica), senjata kejut listrik atau perangkat sengatan
                        listrik lainnya;
                      </p>
                    </li>
                    <li>
                      <p>
                        Any suspicious casual objects which can be used as a
                        weapon or projectile including tools, chemicals,
                        suspicious powder, umbrellas, selfie sticks, and other
                        poles or tripods.
                      </p>
                      <p className="text-red-500 italic">
                        Benda-benda kasual yang mencurigakan yang bisa dijadikan
                        senjata atau proyektil termasuk peralatan, bahan kimia,
                        bubuk mencurigakan, payung, tongkat swafoto dan
                        jenis-jenis tiang atau tripod lainnya.
                      </p>
                    </li>
                  </ul>
                </li>
                <li>
                  <p>
                    Children under the age of 14 (fourteen) must be accompanied
                    by a parent or legal guardian aged 18 (eighteen) or over.
                    Children under the age of 6 (six) are not allowed to attend
                    the event.
                  </p>
                  <p className="text-red-500 italic">
                    Anak-anak di bawah usia 14 (empat belas) tahun harus
                    didampingi oleh orang tua atau wali sah yang berusia 18
                    (delapan belas) tahun atau lebih. Anak-anak di bawah usia 6
                    (enam) tahun tidak diperbolehkan masuk ke area acara.
                  </p>
                </li>
                <li>
                  <p>
                    Every Ticket Holder who comes to the event area is
                    responsible for their own safety, health and personal
                    security. The Sponsors/Band/Organizer/Management are not
                    responsible for, including but not limited to any injury or
                    damage that may occur to Ticket Holders during or in the
                    event.
                  </p>
                  <p className="text-red-500 italic">
                    Setiap Pemegang Tiket yang datang ke area acara bertanggung
                    jawab atas keselamatan, kesehatan, dan keamanan pribadinya
                    sendiri. Para Sponsor/Band/Penyelenggara/Manajemen tidak
                    bertanggung jawab untuk, termasuk namun tidak terbatas pada
                    cedera atau kerusakan yang mungkin terjadi kepada Pemegang
                    Tiket selama atau di dalam acara tersebut.
                  </p>
                </li>
                <li>
                  <p>
                    Your Ticket purchase constitutes a personal, revocable
                    license and, at all times, remains the property of the
                    promoters.
                  </p>
                  <p className="text-red-500 italic">
                    Tiket Anda merupakan lisensi pribadi yang dapat dibatalkan
                    dan, sepanjang waktu, tetap menjadi milik promotor.
                  </p>
                </li>
                <li>
                  <p>
                    The Organizer has the right to refuse admission to and/or
                    evict Ticket-Holders who do not abide by the Terms and
                    Conditions of the event.
                  </p>
                  <p className="text-red-500 italic">
                    Penyelenggara acara memiliki hak untuk menolak masuk
                    dan/atau mengeluarkan orang-orang yang tidak menaati syarat
                    dan ketentuan acara.
                  </p>
                </li>
                <li>
                  <p>
                    The Organizer has the right to process and prosecute in
                    accordance with the provisions of the prevailing laws and
                    regulations, both civil procedure and criminal procedure
                    against people who obtain the tickets through illegal ways,
                    including but not limited to forging or duplicating valid
                    tickets, or obtain the tickets in a way that is not in
                    accordance with what has been determined by the Organizer as
                    stated in these Terms and Conditions.
                  </p>
                  <p className="text-red-500 italic">
                    Penyelenggara berhak untuk memproses dan menuntut secara
                    hukum sesuai dengan ketentuan peraturan perundang-undangan
                    yang berlaku baik secara perdata maupun secara pidana
                    terhadap orang-orang yang memperoleh Tiket dengan cara yang
                    tidak sah termasuk namun tidak terbatas pada cara melakukan
                    pemalsuan atau menggandakan Tiket yang sah atau memperoleh
                    Tiket dengan cara yang tidak sesuai dengan yang telah
                    ditentukan oleh Penyelenggara sebagaimana dalam Syarat dan
                    Ketentuan ini.
                  </p>
                </li>
                <li>
                  <p>
                    Please check our Instagram account (@pkentertainment.id and
                    @temgmt) periodically for more information about BABYMONSTER
                    First Fanmeet “See You There” 2024 IN JAKARTA.
                  </p>
                  <p className="text-red-500 italic">
                    Mohon cek akun Instagram kami (@pkentertainment.id and
                    @temgmt) secara berkala untuk informasi lebih lanjut seputar
                    acara BABYMONSTER First Fanmeet “See You There” 2024 IN
                    JAKARTA.
                  </p>
                </li>
                <li>
                  <p>
                    By purchasing tickets to the BABYMONSTER First Fanmeet “See
                    You There” 2024 IN JAKARTA, Ticket Buyers and Ticket Holders
                    agree to comply with all the Terms & Conditions of the event
                    that are determined and valid from time to time.
                  </p>
                  <p className="text-red-500 italic">
                    Dengan membeli Tiket untuk ke acara fanmeet BABYMONSTER
                    First Fanmeet “See You There” 2024 IN JAKARTA, maka Pembeli
                    Tiket dan Pemegang Tiket setuju untuk menaati setiap dan
                    seluruh Syarat & Ketentuan acara yang ditetapkan dan berlaku
                    dari waktu ke waktu.
                  </p>
                </li>
              </>
            )}
          </ol>

          <button className="text-blue-500" onClick={toggleShowAll}>
            {showAll ? "Show Less" : "Show More"}
          </button>
        </div>

        {/* Promoters */}
        <div
          id="promoters"
          className="flex flex-col gap-5 border-b-2 py-10 border-gray-300"
        >
          <div className="text-[30px] font-bold font-Montserrat text-center">
            Promoters
          </div>

          <div className="flex flex-col gap-1 justify-start items-start w-full">
            <div className="lg:w-2/12 w-full">
              <Image
                className="w-full"
                src={temLogo}
                alt="Third Eye Movement"
              />
            </div>
            <div>
              <p>
                TEM Presents is a powerhouse, live entertainment company
                established in 2007 by Samantha Tzovolos. TEM has promoted
                international artists in Indonesia such as John Mayer, Guns N’
                Roses, STING, Ariana Grande, Michael Buble, Backstreet Boys, The
                Chainsmokers, Il Divo, Mika, Keshi, LANY and more. For more
                information, please visit{" "}
                <Link
                  target="_blank"
                  className="font-bold"
                  href={"https://www.temgmt.com"}
                >
                  www.temgmt.com
                </Link>{" "}
                & Instagram{" "}
                <Link
                  target="_blank"
                  className="font-bold"
                  href={"https://instagram.com/temgmt"}
                >
                  @temgmt
                </Link>
                .
              </p>
            </div>
          </div>

          <div className="flex flex-col gap-1 justify-start items-start w-full">
            <div className="lg:w-4/12 w-full">
              <Image className="w-full" src={pkLogo} alt="PK Entertainment" />
            </div>
            <div className="flex-col flex gap-5">
              <p>
                PK Entertainment, Indonesia’s leading concert promoter and
                event, brand activation and creative agency was established in
                2015. We are a combination of visionaries, strategists, and
                creators who come together to curate and present top-notch
                quality events. Our unconventional thinking process engages with
                clients and their audience; ensuring that we meet all their
                requirements at the highest standards while maintaining their
                brand identity. We are an extension of your dream team and we
                aim to create a memorable experience for everyone.
              </p>

              <p>
                As an events, brand and creative agency; we have the experience
                of working together with multinational companies such as Google,
                Meta, Instagram, YouTube, Netflix, Spotify, GoTo and many more
                delivering over 300 plus events in the past 8 years.
              </p>

              <p>
                Celebrating our 8th Anniversary this year, we have an impressive
                portfolio of handling the biggest concerts in Jakarta including
                Celine Dion, Ed Sheeran, Backstreet Boys, Shawn Mendes, LANY,
                Keshi, Westlife, Calum Scott, RADWIMPS, Fujii Kaze, ONE OK ROCK,
                Charlie Puth, Coldplay, YOASOBI, ADO, Ed Sheeran, Tom Jones, and
                many more.
              </p>

              <p>
                It has been an amazing 2023 with more than 100,000 audiences,
                and will be a bigger 2024 with a long list of concerts, such as,
                RADWIMPS, Eve, BABYMONSTER, LANY, Anime Festival Asia 2024, and
                many more to be announced.
              </p>

              <p>
                For more information about us please visit{" "}
                <Link
                  target="_blank"
                  className="font-bold"
                  href={"https://www.pk-ent.com"}
                >
                  www.pk-ent.com
                </Link>{" "}
                or visit our Instagram{" "}
                <Link
                  target="_blank"
                  className="font-bold"
                  href={"https://instagram.com/pkentertainment.id"}
                >
                  @pkentertainment.id
                </Link>
                .
              </p>
            </div>
          </div>
        </div>

        <div
          id="contact"
          className="flex flex-col gap-5  py-10 border-gray-300"
        >
          <div className="text-[30px] font-bold font-Montserrat text-center pb-5">
            Customer Service Info
          </div>

          <div className="flex flex-col items-start justify-start gap-3">
            <h3 className="text-[17px]">
              For more information about ticket purchase and wheelchair
              accessible seating, please contact:
            </h3>

            <div className="flex flex-col gap-3">
              <h3 className="font-bold">Tiket.com</h3>
              <div>
                <h3>
                  Whatsapp:{" "}
                  <Link
                    className="underline"
                    href={"https://wa.me/6285811500888"}
                  >
                    +62858 1150 0888
                  </Link>
                </h3>
                <h3>
                  Phone:{" "}
                  <Link className="underline" href={"tel:628041500878"}>
                    +628 0415 00878
                  </Link>
                </h3>
                <h3>
                  Email:{" "}
                  <Link className="underline" href={"mailto:cs@tiket.com"}>
                    cs@tiket.com
                  </Link>
                </h3>
              </div>
            </div>
            <div className="flex flex-col gap-3">
              <h3 className="font-bold">PK Entertainment</h3>
              <div>
                <h3>
                  Email:{" "}
                  <Link
                    className="underline"
                    href={"mailto:contact@pk-ent.com"}
                  >
                    contact@pk-ent.com
                  </Link>
                </h3>
              </div>
            </div>
          </div>
        </div>

        <div id="copy" className="flex flex-col gap-3  py-10 border-gray-300">
          <div className="text-[18px] font-bold font-Montserrat text-center ">
            Copyright
          </div>
          <div className="text-[13px] font-bold font-Montserrat text-center ">
            © 2024 PK ENTERTAINMENT GROUP INDONESIA. ALL RIGHTS RESERVED.
          </div>
        </div>

        <button
          className={`${
            isVisible ? "block" : "hidden"
          } fixed bottom-10 right-10 w-12 h-12 rounded-full bg-blue-500 text-white flex justify-center items-center`}
          onClick={scrollToTop}
        >
          <svg
            xmlns="http://www.w3.org/2000/svg"
            className="h-6 w-6"
            fill="none"
            viewBox="0 0 24 24"
            stroke="currentColor"
          >
            <path
              strokeLinecap="round"
              strokeLinejoin="round"
              strokeWidth={2}
              d="M5 15l7-7 7 7"
            />
          </svg>
        </button>
      </div>